{
  "project_info": {
    "project_number": "130846516742",
    "project_id": "basicpokemongo-2465a",
    "storage_bucket": "basicpokemongo-2465a.appspot.com"
  },
  "client": [
    {
      "client_info": {
        "mobilesdk_app_id": "1:130846516742:android:4c8fb8f71a1e85eef90587",
        "android_client_info": {
          "package_name": "com.pgo.test"
        }
      },
      "oauth_client": [
        {
          "client_id": "130846516742-u2bsihjgu8rioubb27oiki80pe8b20cn.apps.googleusercontent.com",
          "client_type": 3
        }
      ],
      "api_key": [
        {
          "current_key": "AIzaSyBYEjtzBQdkxp-XOpfDp82_y_jTTsHNaJI"
        }
      ],
      "services": {
        "appinvite_service": {
          "other_platform_oauth_client": [
            {
              "client_id": "130846516742-u2bsihjgu8rioubb27oiki80pe8b20cn.apps.googleusercontent.com",
              "client_type": 3
            }
          ]
        }
      }
    }
  ],
  "configuration_version": "1"
}